{
  "project_info": {
    "project_number": "1045784207921",
    "project_id": "my-application-f612e",
    "storage_bucket": "my-application-f612e.appspot.com"
  },
  "client": [
    {
      "client_info": {
        "mobilesdk_app_id": "1:1045784207921:android:4534342e70930a21a66b10",
        "android_client_info": {
          "package_name": "com.kshrd.myapplication"
        }
      },
      "oauth_client": [
        {
          "client_id": "1045784207921-92toqhj6c241u8hbv9s9e638f2r5v692.apps.googleusercontent.com",
          "client_type": 3
        }
      ],
      "api_key": [
        {
          "current_key": "AIzaSyBdP0X30q4pzZs5-yT-xmQaYB5-WApNxeA"
        }
      ],
      "services": {
        "appinvite_service": {
          "other_platform_oauth_client": [
            {
              "client_id": "1045784207921-92toqhj6c241u8hbv9s9e638f2r5v692.apps.googleusercontent.com",
              "client_type": 3
            }
          ]
        }
      }
    }
  ],
  "configuration_version": "1"
}